sdram/tb.vcd
$date
	Sat Nov 26 17:42:29 2022
$end
$version
	Icarus Verilog
$end
$timescale
	1ns
$end
$scope module tb $end
$var wire 1 ! locked $end
$var wire 1 " ready $end
$var wire 8 # out [7:0] $end
$var wire 1 $ dram_we $end
$var wire 1 % dram_udqm $end
$var wire 1 & dram_ras $end
$var wire 1 ' dram_ldqm $end
$var wire 16 ( dram_dq [15:0] $end
$var wire 1 ) dram_clk $end
$var wire 1 * dram_cas $end
$var wire 2 + dram_ba [1:0] $end
$var wire 13 , dram_addr [12:0] $end
$var reg 26 - address [25:0] $end
$var reg 1 . clock $end
$var reg 1 / clock_25 $end
$var reg 1 0 clock_50 $end
$var reg 8 1 in [7:0] $end
$var reg 1 2 reset_n $end
$var reg 1 3 we $end
$scope module M1 $end
$var wire 26 4 address [25:0] $end
$var wire 1 . clock $end
$var wire 1 5 clock_host $end
$var wire 1 ) dram_clk $end
$var wire 8 6 in [7:0] $end
$var wire 1 7 invd $end
$var wire 1 8 noinit $end
$var wire 1 " ready $end
$var wire 1 2 reset_n $end
$var wire 1 3 we $end
$var wire 1 $ dram_we $end
$var wire 1 & dram_ras $end
$var wire 16 9 dram_dq [15:0] $end
$var wire 1 * dram_cas $end
$var reg 13 : bank_charge [12:0] $end
$var reg 3 ; command [2:0] $end
$var reg 13 < dram_addr [12:0] $end
$var reg 2 = dram_ba [1:0] $end
$var reg 1 ' dram_ldqm $end
$var reg 1 % dram_udqm $end
$var reg 26 > ff_address [25:0] $end
$var reg 8 ? ff_data [7:0] $end
$var reg 1 @ ff_first $end
$var reg 1 A ff_ready $end
$var reg 1 B ff_we $end
$var reg 4 C fn [3:0] $end
$var reg 8 D out [7:0] $end
$var reg 1 E precharge $end
$var reg 4 F st [3:0] $end
$var reg 18 G timer [17:0] $end
$upscope $end
$upscope $end
$enddefinitions $end
#0
$dumpvars
b0 G
b1 F
0E
bx D
b0 C
0B
0A
1@
b0 ?
b0 >
bx =
bx <
b111 ;
b0 :
bz 9
18
17
b1010101 6
z5
b1010001000110100 4
03
02
b1010101 1
00
0/
1.
b1010001000110100 -
bx ,
bx +
1*
1)
bz (
1'
1&
1%
1$
bx #
0"
1!
$end
#5
0)
0.
#10
1)
1.
10
#15
0)
0.
#20
07
0&
0%
0'
b1 :
b10100 ,
b10100 <
b0 +
b0 =
b1010101 ?
b1010001000110100 >
0@
b11 F
1E
b11 ;
1)
1.
00
12
1/
#25
0)
0.
#30
1&
b1 C
b111 ;
1)
1.
10
#35
0)
0.
#40
b10 C
1)
1.
00
0/
#45
0)
0.
#50
0*
b10100011010 ,
b10100011010 <
b101 ;
b11 C
1)
1.
10
#55
0)
0.
#60
b100 C
1)
1.
00
1/
#65
0)
0.
#70
1*
b101 C
b111 ;
1)
1.
10
#75
0)
0.
#80
b110 C
1)
1.
00
0/
#85
0)
0.
#90
b101010101010101 (
b101010101010101 9
0&
0$
bz #
bz D
b10 ;
b111 C
1)
1.
10
#95
0)
0.
#100
bz (
bz 9
1"
1&
1$
1A
1'
1%
b111 ;
b0 C
b1 F
1)
1.
00
1/
#105
0)
0.
#110
0&
b10 :
b1 ,
b1 <
b10 F
0E
b11 ;
1)
1.
10
#115
0)
0.
#120
1&
b1 C
b111 ;
1)
1.
00
0/
#125
0)
0.
#130
b10 C
1)
1.
10
#135
0)
0.
#140
0"
b101011001010110 (
b101011001010110 9
17
0&
0$
b10000000001 ,
b10000000001 <
b11 C
b10 ;
b1010110 1
b1010110 6
b1010001000110101 -
b1010001000110101 4
1)
1.
00
1/
#145
0)
0.
#150
bz (
bz 9
1&
1$
b1 F
b111 ;
1)
1.
10
#155
0)
0.
#160
07
0&
0%
0'
b11 :
b10100 ,
b10100 <
b1010110 ?
b1010001000110101 >
0A
b11 F
1E
b11 ;
b0 C
1)
1.
00
0/
#165
0)
0.
#170
1&
b1 C
b111 ;
1)
1.
10
#175
0)
0.
#180
b10 C
1)
1.
00
1/
#185
0)
0.
#190
0*
b10100011010 ,
b10100011010 <
b101 ;
b11 C
1)
1.
10
#195
0)
0.
#200
b100 C
1)
1.
00
0/
#205
0)
0.
#210
1*
b101 C
b111 ;
1)
1.
10
#215
0)
0.
#220
b110 C
1)
1.
00
1/
#225
0)
0.
#230
b101011001010110 (
b101011001010110 9
0&
0$
b10 ;
b111 C
1)
1.
10
#235
0)
0.
#240
bz (
bz 9
1"
1&
1$
1A
1'
1%
b111 ;
b0 C
b1 F
1)
1.
00
0/
#245
0)
0.
#250
0&
b100 :
b11 ,
b11 <
b10 F
0E
b11 ;
1)
1.
10
#255
0)
0.
#260
0"
17
1&
b1 C
b111 ;
b1010111 1
b1010111 6
b1010001000110110 -
b1010001000110110 4
1)
1.
00
1/
#265
0)
0.
#270
b10 C
1)
1.
10
#275
0)
0.
#280
b101011101010111 (
b101011101010111 9
0&
0$
b10000000011 ,
b10000000011 <
b11 C
b10 ;
1)
1.
00
0/
#285
0)
0.
#290
bz (
bz 9
1&
1$
b1 F
b111 ;
1)
1.
10
#295
0)
0.
#300
07
0&
0%
0'
b101 :
b10100 ,
b10100 <
b1010111 ?
b1010001000110110 >
0A
b11 F
1E
b11 ;
b0 C
1)
1.
00
1/
#305
0)
0.
#310
1&
b1 C
b111 ;
1)
1.
10
#315
0)
0.
#320
b10 C
1)
1.
00
0/
#325
0)
0.
#330
0*
b10100011011 ,
b10100011011 <
b101 ;
b11 C
1)
1.
10
#335
0)
0.
#340
b100 C
1)
1.
00
1/
#345
0)
0.
#350
1*
b101 C
b111 ;
1)
1.
10
#355
0)
0.
#360
b110 C
1)
1.
00
0/
#365
0)
0.
#370
b101011101010111 (
b101011101010111 9
0&
0$
b10 ;
b111 C
1)
1.
10
#375
0)
0.
#380
bz (
bz 9
1"
1&
1$
1A
1'
1%
b111 ;
b0 C
b1 F
1)
1.
00
1/
#385
0)
0.
#390
0&
b110 :
b101 ,
b101 <
b10 F
0E
b11 ;
1)
1.
10
#395
0)
0.
#400
1&
b1 C
b111 ;
1)
1.
00
0/
#405
0)
0.
#410
b10 C
1)
1.
10
#415
0)
0.
#420
0"
b101100001011000 (
b101100001011000 9
17
0&
0$
b10000000101 ,
b10000000101 <
b11 C
b10 ;
b1011000 1
b1011000 6
b1010001000110111 -
b1010001000110111 4
1)
1.
00
1/
#425
0)
0.
#430
bz (
bz 9
1&
1$
b1 F
b111 ;
1)
1.
10
#435
0)
0.
#440
07
0&
0%
0'
b111 :
b10100 ,
b10100 <
b1011000 ?
b1010001000110111 >
0A
b11 F
1E
b11 ;
b0 C
1)
1.
00
0/
#445
0)
0.
#450
1&
b1 C
b111 ;
1)
1.
10
#455
0)
0.
#460
b10 C
1)
1.
00
1/
#465
0)
0.
#470
0*
b10100011011 ,
b10100011011 <
b101 ;
b11 C
1)
1.
10
#475
0)
0.
#480
b100 C
1)
1.
00
0/
#485
0)
0.
#490
1*
b101 C
b111 ;
1)
1.
10
#495
0)
0.
#500
b110 C
1)
1.
00
1/
#505
0)
0.
#510
b101100001011000 (
b101100001011000 9
0&
0$
b10 ;
b111 C
1)
1.
10
#515
0)
0.
#520
bz (
bz 9
1"
1&
1$
1A
1'
1%
b111 ;
b0 C
b1 F
1)
1.
00
0/
#525
0)
0.
#530
0&
b1000 :
b111 ,
b111 <
b10 F
0E
b11 ;
1)
1.
10
#535
0)
0.
#540
0"
17
1&
b1 C
b111 ;
b1011001 1
b1011001 6
b1010001000111000 -
b1010001000111000 4
1)
1.
00
1/
#545
0)
0.
#550
b10 C
1)
1.
10
#555
0)
0.
#560
b101100101011001 (
b101100101011001 9
0&
0$
b10000000111 ,
b10000000111 <
b11 C
b10 ;
1)
1.
00
0/
#565
0)
0.
#570
bz (
bz 9
1&
1$
b1 F
b111 ;
1)
1.
10
#575
0)
0.
#580
07
0&
0%
0'
b1001 :
b10100 ,
b10100 <
b1011001 ?
b1010001000111000 >
0A
b11 F
1E
b11 ;
b0 C
1)
1.
00
1/
#585
0)
0.
#590
1&
b1 C
b111 ;
1)
1.
10
#595
0)
0.
#600
b10 C
1)
1.
00
0/
#605
0)
0.
#610
0*
b10100011100 ,
b10100011100 <
b101 ;
b11 C
1)
1.
10
#615
0)
0.
#620
b100 C
1)
1.
00
1/
#625
0)
0.
#630
1*
b101 C
b111 ;
1)
1.
10
#635
0)
0.
#640
b110 C
1)
1.
00
0/
#645
0)
0.
#650
b101100101011001 (
b101100101011001 9
0&
0$
b10 ;
b111 C
1)
1.
10
#655
0)
0.
#660
bz (
bz 9
1"
1&
1$
1A
1'
1%
b111 ;
b0 C
b1 F
1)
1.
00
1/
#665
0)
0.
#670
0&
b1010 :
b1001 ,
b1001 <
b10 F
0E
b11 ;
1)
1.
10
#675
0)
0.
#680
1&
b1 C
b111 ;
1)
1.
00
0/
#685
0)
0.
#690
b10 C
1)
1.
10
#695
0)
0.
#700
0"
b101101001011010 (
b101101001011010 9
17
0&
0$
b10000001001 ,
b10000001001 <
b11 C
b10 ;
b1011010 1
b1011010 6
b1010001000111001 -
b1010001000111001 4
1)
1.
00
1/
#705
0)
0.
#710
bz (
bz 9
1&
1$
b1 F
b111 ;
1)
1.
10
#715
0)
0.
#720
07
0&
0%
0'
b1011 :
b10100 ,
b10100 <
b1011010 ?
b1010001000111001 >
0A
b11 F
1E
b11 ;
b0 C
1)
1.
00
0/
#725
0)
0.
#730
1&
b1 C
b111 ;
1)
1.
10
#735
0)
0.
#740
b10 C
1)
1.
00
1/
#745
0)
0.
#750
0*
b10100011100 ,
b10100011100 <
b101 ;
b11 C
1)
1.
10
#755
0)
0.
#760
b100 C
1)
1.
00
0/
#765
0)
0.
#770
1*
b101 C
b111 ;
1)
1.
10
#775
0)
0.
#780
b110 C
1)
1.
00
1/
#785
0)
0.
#790
b101101001011010 (
b101101001011010 9
0&
0$
b10 ;
b111 C
1)
1.
10
#795
0)
0.
#800
bz (
bz 9
1"
1&
1$
1A
1'
1%
b111 ;
b0 C
b1 F
1)
1.
00
0/
#805
0)
0.
#810
0&
b1100 :
b1011 ,
b1011 <
b10 F
0E
b11 ;
1)
1.
10
#815
0)
0.
#820
0"
17
1&
b1 C
b111 ;
b1011011 1
b1011011 6
b1010001000111010 -
b1010001000111010 4
1)
1.
00
1/
#825
0)
0.
#830
b10 C
1)
1.
10
#835
0)
0.
#840
b101101101011011 (
b101101101011011 9
0&
0$
b10000001011 ,
b10000001011 <
b11 C
b10 ;
1)
1.
00
0/
#845
0)
0.
#850
bz (
bz 9
1&
1$
b1 F
b111 ;
1)
1.
10
#855
0)
0.
#860
07
0&
0%
0'
b1101 :
b10100 ,
b10100 <
b1011011 ?
b1010001000111010 >
0A
b11 F
1E
b11 ;
b0 C
1)
1.
00
1/
#865
0)
0.
#870
1&
b1 C
b111 ;
1)
1.
10
#875
0)
0.
#880
b10 C
1)
1.
00
0/
#885
0)
0.
#890
0*
b10100011101 ,
b10100011101 <
b101 ;
b11 C
1)
1.
10
#895
0)
0.
#900
b100 C
1)
1.
00
1/
#905
0)
0.
#910
1*
b101 C
b111 ;
1)
1.
10
#915
0)
0.
#920
b110 C
1)
1.
00
0/
#925
0)
0.
#930
b101101101011011 (
b101101101011011 9
0&
0$
b10 ;
b111 C
1)
1.
10
#935
0)
0.
#940
bz (
bz 9
1"
1&
1$
1A
1'
1%
b111 ;
b0 C
b1 F
1)
1.
00
1/
#945
0)
0.
#950
0&
b1110 :
b1101 ,
b1101 <
b10 F
0E
b11 ;
1)
1.
10
#955
0)
0.
#960
1&
b1 C
b111 ;
1)
1.
00
0/
#965
0)
0.
#970
b10 C
1)
1.
10
#975
0)
0.
#980
0"
b101110001011100 (
b101110001011100 9
17
0&
0$
b10000001101 ,
b10000001101 <
b11 C
b10 ;
b1011100 1
b1011100 6
b1010001000111011 -
b1010001000111011 4
1)
1.
00
1/
#985
0)
0.
#990
bz (
bz 9
1&
1$
b1 F
b111 ;
1)
1.
10
#995
0)
0.
#1000
07
0&
0%
0'
b1111 :
b10100 ,
b10100 <
b1011100 ?
b1010001000111011 >
0A
b11 F
1E
b11 ;
b0 C
1)
1.
00
0/
#1005
0)
0.
#1010
1&
b1 C
b111 ;
1)
1.
10
#1015
0)
0.
#1020
b10 C
1)
1.
00
1/
#1025
0)
0.
#1030
0*
b10100011101 ,
b10100011101 <
b101 ;
b11 C
1)
1.
10
#1035
0)
0.
#1040
b100 C
1)
1.
00
0/
#1045
0)
0.
#1050
1*
b101 C
b111 ;
1)
1.
10
#1055
0)
0.
#1060
b110 C
1)
1.
00
1/
#1065
0)
0.
#1070
b101110001011100 (
b101110001011100 9
0&
0$
b10 ;
b111 C
1)
1.
10
#1075
0)
0.
#1080
bz (
bz 9
1"
1&
1$
1A
1'
1%
b111 ;
b0 C
b1 F
1)
1.
00
0/
#1085
0)
0.
#1090
0&
b10000 :
b1111 ,
b1111 <
b10 F
0E
b11 ;
1)
1.
10
#1095
0)
0.
#1100
0"
17
1&
b1 C
b111 ;
b1011101 1
b1011101 6
b1010001000111100 -
b1010001000111100 4
1)
1.
00
1/
#1105
0)
0.
#1110
b10 C
1)
1.
10
#1115
0)
0.
#1120
b101110101011101 (
b101110101011101 9
0&
0$
b10000001111 ,
b10000001111 <
b11 C
b10 ;
1)
1.
00
0/
#1125
0)
0.
#1130
bz (
bz 9
1&
1$
b1 F
b111 ;
1)
1.
10
#1135
0)
0.
#1140
07
0&
0%
0'
b10001 :
b10100 ,
b10100 <
b1011101 ?
b1010001000111100 >
0A
b11 F
1E
b11 ;
b0 C
1)
1.
00
1/
#1145
0)
0.
#1150
1&
b1 C
b111 ;
1)
1.
10
#1155
0)
0.
#1160
b10 C
1)
1.
00
0/
#1165
0)
0.
#1170
0*
b10100011110 ,
b10100011110 <
b101 ;
b11 C
1)
1.
10
#1175
0)
0.
#1180
b100 C
1)
1.
00
1/
#1185
0)
0.
#1190
1*
b101 C
b111 ;
1)
1.
10
#1195
0)
0.
#1200
b110 C
1)
1.
00
0/
#1205
0)
0.
#1210
b101110101011101 (
b101110101011101 9
0&
0$
b10 ;
b111 C
1)
1.
10
#1215
0)
0.
#1220
bz (
bz 9
1"
1&
1$
1A
1'
1%
b111 ;
b0 C
b1 F
1)
1.
00
1/
#1225
0)
0.
#1230
0&
b10010 :
b10001 ,
b10001 <
b10 F
0E
b11 ;
1)
1.
10
#1235
0)
0.
#1240
1&
b1 C
b111 ;
1)
1.
00
0/
#1245
0)
0.
#1250
b10 C
1)
1.
10
#1255
0)
0.
#1260
0"
b101111001011110 (
b101111001011110 9
17
0&
0$
b10000010001 ,
b10000010001 <
b11 C
b10 ;
b1011110 1
b1011110 6
b1010001000111101 -
b1010001000111101 4
1)
1.
00
1/
#1265
0)
0.
#1270
bz (
bz 9
1&
1$
b1 F
b111 ;
1)
1.
10
#1275
0)
0.
#1280
07
0&
0%
0'
b10011 :
b10100 ,
b10100 <
b1011110 ?
b1010001000111101 >
0A
b11 F
1E
b11 ;
b0 C
1)
1.
00
0/
#1285
0)
0.
#1290
1&
b1 C
b111 ;
1)
1.
10
#1295
0)
0.
#1300
b10 C
1)
1.
00
1/
#1305
0)
0.
#1310
0*
b10100011110 ,
b10100011110 <
b101 ;
b11 C
1)
1.
10
#1315
0)
0.
#1320
b100 C
1)
1.
00
0/
#1325
0)
0.
#1330
1*
b101 C
b111 ;
1)
1.
10
#1335
0)
0.
#1340
b110 C
1)
1.
00
1/
#1345
0)
0.
#1350
b101111001011110 (
b101111001011110 9
0&
0$
b10 ;
b111 C
1)
1.
10
#1355
0)
0.
#1360
bz (
bz 9
1"
1&
1$
1A
1'
1%
b111 ;
b0 C
b1 F
1)
1.
00
0/
#1365
0)
0.
#1370
0&
b10100 :
b10011 ,
b10011 <
b10 F
0E
b11 ;
1)
1.
10
#1375
0)
0.
#1380
0"
17
1&
b1 C
b111 ;
b1011111 1
b1011111 6
b1010001000111110 -
b1010001000111110 4
1)
1.
00
1/
#1385
0)
0.
#1390
b10 C
1)
1.
10
#1395
0)
0.
#1400
b101111101011111 (
b101111101011111 9
0&
0$
b10000010011 ,
b10000010011 <
b11 C
b10 ;
1)
1.
00
0/
#1405
0)
0.
#1410
bz (
bz 9
1&
1$
b1 F
b111 ;
1)
1.
10
#1415
0)
0.
#1420
07
0&
0%
0'
b10101 :
b10100 ,
b10100 <
b1011111 ?
b1010001000111110 >
0A
b11 F
1E
b11 ;
b0 C
1)
1.
00
1/
#1425
0)
0.
#1430
1&
b1 C
b111 ;
1)
1.
10
#1435
0)
0.
#1440
b10 C
1)
1.
00
0/
#1445
0)
0.
#1450
0*
b10100011111 ,
b10100011111 <
b101 ;
b11 C
1)
1.
10
#1455
0)
0.
#1460
b100 C
1)
1.
00
1/
#1465
0)
0.
#1470
1*
b101 C
b111 ;
1)
1.
10
#1475
0)
0.
#1480
b110 C
1)
1.
00
0/
#1485
0)
0.
#1490
b101111101011111 (
b101111101011111 9
0&
0$
b10 ;
b111 C
1)
1.
10
#1495
0)
0.
#1500
bz (
bz 9
1"
1&
1$
1A
1'
1%
b111 ;
b0 C
b1 F
1)
1.
00
1/
#1505
0)
0.
#1510
0&
b10110 :
b10101 ,
b10101 <
b10 F
0E
b11 ;
1)
1.
10
#1515
0)
0.
#1520
1&
b1 C
b111 ;
1)
1.
00
0/
#1525
0)
0.
#1530
b10 C
1)
1.
10
#1535
0)
0.
#1540
0"
b110000001100000 (
b110000001100000 9
17
0&
0$
b10000010101 ,
b10000010101 <
b11 C
b10 ;
b1100000 1
b1100000 6
b1010001000111111 -
b1010001000111111 4
1)
1.
00
1/
#1545
0)
0.
#1550
bz (
bz 9
1&
1$
b1 F
b111 ;
1)
1.
10
#1555
0)
0.
#1560
07
0&
0%
0'
b10111 :
b10100 ,
b10100 <
b1100000 ?
b1010001000111111 >
0A
b11 F
1E
b11 ;
b0 C
1)
1.
00
0/
#1565
0)
0.
#1570
1&
b1 C
b111 ;
1)
1.
10
#1575
0)
0.
#1580
b10 C
1)
1.
00
1/
#1585
0)
0.
#1590
0*
b10100011111 ,
b10100011111 <
b101 ;
b11 C
1)
1.
10
#1595
0)
0.
#1600
b100 C
1)
1.
00
0/
#1605
0)
0.
#1610
1*
b101 C
b111 ;
1)
1.
10
#1615
0)
0.
#1620
b110 C
1)
1.
00
1/
#1625
0)
0.
#1630
b110000001100000 (
b110000001100000 9
0&
0$
b10 ;
b111 C
1)
1.
10
#1635
0)
0.
#1640
bz (
bz 9
1"
1&
1$
1A
1'
1%
b111 ;
b0 C
b1 F
1)
1.
00
0/
#1645
0)
0.
#1650
0&
b11000 :
b10111 ,
b10111 <
b10 F
0E
b11 ;
1)
1.
10
#1655
0)
0.
#1660
0"
17
1&
b1 C
b111 ;
b1100001 1
b1100001 6
b1010001001000000 -
b1010001001000000 4
1)
1.
00
1/
#1665
0)
0.
#1670
b10 C
1)
1.
10
#1675
0)
0.
#1680
b110000101100001 (
b110000101100001 9
0&
0$
b10000010111 ,
b10000010111 <
b11 C
b10 ;
1)
1.
00
0/
#1685
0)
0.
#1690
bz (
bz 9
1&
1$
b1 F
b111 ;
1)
1.
10
#1695
0)
0.
#1700
07
0&
0%
0'
b11001 :
b10100 ,
b10100 <
b1100001 ?
b1010001001000000 >
0A
b11 F
1E
b11 ;
b0 C
1)
1.
00
1/
#1705
0)
0.
#1710
1&
b1 C
b111 ;
1)
1.
10
#1715
0)
0.
#1720
b10 C
1)
1.
00
0/
#1725
0)
0.
#1730
0*
b10100100000 ,
b10100100000 <
b101 ;
b11 C
1)
1.
10
#1735
0)
0.
#1740
b100 C
1)
1.
00
1/
#1745
0)
0.
#1750
1*
b101 C
b111 ;
1)
1.
10
#1755
0)
0.
#1760
b110 C
1)
1.
00
0/
#1765
0)
0.
#1770
b110000101100001 (
b110000101100001 9
0&
0$
b10 ;
b111 C
1)
1.
10
#1775
0)
0.
#1780
bz (
bz 9
1"
1&
1$
1A
1'
1%
b111 ;
b0 C
b1 F
1)
1.
00
1/
#1785
0)
0.
#1790
0&
b11010 :
b11001 ,
b11001 <
b10 F
0E
b11 ;
1)
1.
10
#1795
0)
0.
#1800
1&
b1 C
b111 ;
1)
1.
00
0/
#1805
0)
0.
#1810
b10 C
1)
1.
10
#1815
0)
0.
#1820
0"
b110001001100010 (
b110001001100010 9
17
0&
0$
b10000011001 ,
b10000011001 <
b11 C
b10 ;
b1100010 1
b1100010 6
b1010001001000001 -
b1010001001000001 4
1)
1.
00
1/
#1825
0)
0.
#1830
bz (
bz 9
1&
1$
b1 F
b111 ;
1)
1.
10
#1835
0)
0.
#1840
07
0&
0%
0'
b11011 :
b10100 ,
b10100 <
b1100010 ?
b1010001001000001 >
0A
b11 F
1E
b11 ;
b0 C
1)
1.
00
0/
#1845
0)
0.
#1850
1&
b1 C
b111 ;
1)
1.
10
#1855
0)
0.
#1860
b10 C
1)
1.
00
1/
#1865
0)
0.
#1870
0*
b10100100000 ,
b10100100000 <
b101 ;
b11 C
1)
1.
10
#1875
0)
0.
#1880
b100 C
1)
1.
00
0/
#1885
0)
0.
#1890
1*
b101 C
b111 ;
1)
1.
10
#1895
0)
0.
#1900
b110 C
1)
1.
00
1/
#1905
0)
0.
#1910
b110001001100010 (
b110001001100010 9
0&
0$
b10 ;
b111 C
1)
1.
10
#1915
0)
0.
#1920
bz (
bz 9
1"
1&
1$
1A
1'
1%
b111 ;
b0 C
b1 F
1)
1.
00
0/
#1925
0)
0.
#1930
0&
b11100 :
b11011 ,
b11011 <
b10 F
0E
b11 ;
1)
1.
10
#1935
0)
0.
#1940
0"
17
1&
b1 C
b111 ;
b1100011 1
b1100011 6
b1010001001000010 -
b1010001001000010 4
1)
1.
00
1/
#1945
0)
0.
#1950
b10 C
1)
1.
10
#1955
0)
0.
#1960
b110001101100011 (
b110001101100011 9
0&
0$
b10000011011 ,
b10000011011 <
b11 C
b10 ;
1)
1.
00
0/
#1965
0)
0.
#1970
bz (
bz 9
1&
1$
b1 F
b111 ;
1)
1.
10
#1975
0)
0.
#1980
07
0&
0%
0'
b11101 :
b10100 ,
b10100 <
b1100011 ?
b1010001001000010 >
0A
b11 F
1E
b11 ;
b0 C
1)
1.
00
1/
#1985
0)
0.
#1990
1&
b1 C
b111 ;
1)
1.
10
#1995
0)
0.
#2000
b10 C
1)
1.
00
0/
#2005
0)
0.
#2010
0*
b10100100001 ,
b10100100001 <
b101 ;
b11 C
1)
1.
10
#2015
0)
0.
#2020
b100 C
1)
1.
00
1/
#2025
0)
0.
#2030
1*
b101 C
b111 ;
1)
1.
10
#2035
0)
0.
#2040
b110 C
1)
1.
00
0/
#2045
0)
0.
#2050
b110001101100011 (
b110001101100011 9
0&
0$
b10 ;
b111 C
1)
1.
10
#2055
0)
0.
#2060
bz (
bz 9
1"
1&
1$
1A
1'
1%
b111 ;
b0 C
b1 F
1)
1.
00
1/
#2065
0)
0.
#2070
0&
b11110 :
b11101 ,
b11101 <
b10 F
0E
b11 ;
1)
1.
10
#2075
0)
0.
#2080
1&
b1 C
b111 ;
1)
1.
00
0/
#2085
0)
0.
#2090
b10 C
1)
1.
10
#2095
0)
0.
#2100
0"
b110010001100100 (
b110010001100100 9
17
0&
0$
b10000011101 ,
b10000011101 <
b11 C
b10 ;
b1100100 1
b1100100 6
b1010001001000011 -
b1010001001000011 4
1)
1.
00
1/
#2105
0)
0.
#2110
bz (
bz 9
1&
1$
b1 F
b111 ;
1)
1.
10
#2115
0)
0.
#2120
07
0&
0%
0'
b11111 :
b10100 ,
b10100 <
b1100100 ?
b1010001001000011 >
0A
b11 F
1E
b11 ;
b0 C
1)
1.
00
0/
#2125
0)
0.
#2130
1&
b1 C
b111 ;
1)
1.
10
#2135
0)
0.
#2140
b10 C
1)
1.
00
1/
#2145
0)
0.
#2150
0*
b10100100001 ,
b10100100001 <
b101 ;
b11 C
1)
1.
10
#2155
0)
0.
#2160
b100 C
1)
1.
00
0/
#2165
0)
0.
#2170
1*
b101 C
b111 ;
1)
1.
10
#2175
0)
0.
#2180
b110 C
1)
1.
00
1/
#2185
0)
0.
#2190
b110010001100100 (
b110010001100100 9
0&
0$
b10 ;
b111 C
1)
1.
10
#2195
0)
0.
#2200
bz (
bz 9
1"
1&
1$
1A
1'
1%
b111 ;
b0 C
b1 F
1)
1.
00
0/
#2205
0)
0.
#2210
0&
b100000 :
b11111 ,
b11111 <
b10 F
0E
b11 ;
1)
1.
10
#2215
0)
0.
#2220
0"
17
1&
b1 C
b111 ;
b1100101 1
b1100101 6
b1010001001000100 -
b1010001001000100 4
1)
1.
00
1/
#2225
0)
0.
#2230
b10 C
1)
1.
10
#2235
0)
0.
#2240
b110010101100101 (
b110010101100101 9
0&
0$
b10000011111 ,
b10000011111 <
b11 C
b10 ;
1)
1.
00
0/
#2245
0)
0.
#2250
bz (
bz 9
1&
1$
b1 F
b111 ;
1)
1.
10
#2255
0)
0.
#2260
07
0&
0%
0'
b100001 :
b10100 ,
b10100 <
b1100101 ?
b1010001001000100 >
0A
b11 F
1E
b11 ;
b0 C
1)
1.
00
1/
#2265
0)
0.
#2270
1&
b1 C
b111 ;
1)
1.
10
#2275
0)
0.
#2280
b10 C
1)
1.
00
0/
#2285
0)
0.
#2290
0*
b10100100010 ,
b10100100010 <
b101 ;
b11 C
1)
1.
10
#2295
0)
0.
#2300
b100 C
1)
1.
00
1/
#2305
0)
0.
#2310
1*
b101 C
b111 ;
1)
1.
10
#2315
0)
0.
#2320
b110 C
1)
1.
00
0/
#2325
0)
0.
#2330
b110010101100101 (
b110010101100101 9
0&
0$
b10 ;
b111 C
1)
1.
10
#2335
0)
0.
#2340
bz (
bz 9
1"
1&
1$
1A
1'
1%
b111 ;
b0 C
b1 F
1)
1.
00
1/
#2345
0)
0.
#2350
0&
b100010 :
b100001 ,
b100001 <
b10 F
0E
b11 ;
1)
1.
10
#2355
0)
0.
#2360
1&
b1 C
b111 ;
1)
1.
00
0/
#2365
0)
0.
#2370
b10 C
1)
1.
10
#2375
0)
0.
#2380
0"
b110011001100110 (
b110011001100110 9
17
0&
0$
b10000100001 ,
b10000100001 <
b11 C
b10 ;
b1100110 1
b1100110 6
b1010001001000101 -
b1010001001000101 4
1)
1.
00
1/
#2385
0)
0.
#2390
bz (
bz 9
1&
1$
b1 F
b111 ;
1)
1.
10
#2395
0)
0.
#2400
07
0&
0%
0'
b100011 :
b10100 ,
b10100 <
b1100110 ?
b1010001001000101 >
0A
b11 F
1E
b11 ;
b0 C
1)
1.
00
0/
#2405
0)
0.
#2410
1&
b1 C
b111 ;
1)
1.
10
#2415
0)
0.
#2420
b10 C
1)
1.
00
1/
#2425
0)
0.
#2430
0*
b10100100010 ,
b10100100010 <
b101 ;
b11 C
1)
1.
10
#2435
0)
0.
#2440
b100 C
1)
1.
00
0/
#2445
0)
0.
#2450
1*
b101 C
b111 ;
1)
1.
10
#2455
0)
0.
#2460
b110 C
1)
1.
00
1/
#2465
0)
0.
#2470
b110011001100110 (
b110011001100110 9
0&
0$
b10 ;
b111 C
1)
1.
10
#2475
0)
0.
#2480
bz (
bz 9
1"
1&
1$
1A
1'
1%
b111 ;
b0 C
b1 F
1)
1.
00
0/
#2485
0)
0.
#2490
0&
b100100 :
b100011 ,
b100011 <
b10 F
0E
b11 ;
1)
1.
10
#2495
0)
0.
#2500
0"
17
1&
b1 C
b111 ;
b1100111 1
b1100111 6
b1010001001000110 -
b1010001001000110 4
1)
1.
00
1/
#2505
0)
0.
#2510
b10 C
1)
1.
10
#2515
0)
0.
#2520
b110011101100111 (
b110011101100111 9
0&
0$
b10000100011 ,
b10000100011 <
b11 C
b10 ;
1)
1.
00
0/
#2525
0)
0.
#2530
bz (
bz 9
1&
1$
b1 F
b111 ;
1)
1.
10
#2535
0)
0.
#2540
07
0&
0%
0'
b100101 :
b10100 ,
b10100 <
b1100111 ?
b1010001001000110 >
0A
b11 F
1E
b11 ;
b0 C
1)
1.
00
1/
#2545
0)
0.
#2550
1&
b1 C
b111 ;
1)
1.
10
#2555
0)
0.
#2560
b10 C
1)
1.
00
0/
#2565
0)
0.
#2570
0*
b10100100011 ,
b10100100011 <
b101 ;
b11 C
1)
1.
10
#2575
0)
0.
#2580
b100 C
1)
1.
00
1/
#2585
0)
0.
#2590
1*
b101 C
b111 ;
1)
1.
10
#2595
0)
0.
#2600
b110 C
1)
1.
00
0/
#2605
0)
0.
#2610
b110011101100111 (
b110011101100111 9
0&
0$
b10 ;
b111 C
1)
1.
10
#2615
0)
0.
#2620
bz (
bz 9
1"
1&
1$
1A
1'
1%
b111 ;
b0 C
b1 F
1)
1.
00
1/
#2625
0)
0.
#2630
0&
b100110 :
b100101 ,
b100101 <
b10 F
0E
b11 ;
1)
1.
10
#2635
0)
0.
#2640
1&
b1 C
b111 ;
1)
1.
00
0/
#2645
0)
0.
#2650
b10 C
1)
1.
10
#2655
0)
0.
#2660
0"
b110100001101000 (
b110100001101000 9
17
0&
0$
b10000100101 ,
b10000100101 <
b11 C
b10 ;
b1101000 1
b1101000 6
b1010001001000111 -
b1010001001000111 4
1)
1.
00
1/
#2665
0)
0.
#2670
bz (
bz 9
1&
1$
b1 F
b111 ;
1)
1.
10
#2675
0)
0.
#2680
07
0&
0%
0'
b100111 :
b10100 ,
b10100 <
b1101000 ?
b1010001001000111 >
0A
b11 F
1E
b11 ;
b0 C
1)
1.
00
0/
#2685
0)
0.
#2690
1&
b1 C
b111 ;
1)
1.
10
#2695
0)
0.
#2700
b10 C
1)
1.
00
1/
#2705
0)
0.
#2710
0*
b10100100011 ,
b10100100011 <
b101 ;
b11 C
1)
1.
10
#2715
0)
0.
#2720
b100 C
1)
1.
00
0/
#2725
0)
0.
#2730
1*
b101 C
b111 ;
1)
1.
10
#2735
0)
0.
#2740
b110 C
1)
1.
00
1/
#2745
0)
0.
